src/file.vcd
$date
	Wed Feb 15 18:45:40 2023
$end

$version
	Synopsys VCS version R-2020.12
$end

$timescale
	1s
$end

$comment Csum: 1 b5ebc6a633ab244e $end


$scope module r_fifo_tb $end
$var reg 1 ! clock $end
$var reg 1 " resetn $end
$var reg 1 # soft_reset $end
$var reg 1 $ write_enb $end
$var reg 1 % read_enb $end
$var reg 1 & lfd_state $end
$var reg 8 ' data_in [7:0] $end
$var reg 1 ( full $end
$var reg 1 ) empty $end
$var wire 8 * data_out [7:0] $end

$scope module dut $end
$var wire 1 ! clock $end
$var wire 1 " resetn $end
$var wire 1 + soft_reset $end
$var wire 1 $ write_enb $end
$var wire 1 % read_enb $end
$var wire 1 & lfd_state $end
$var wire 8 ' data_in [7:0] $end
$var wire 1 ( full $end
$var wire 1 ) empty $end
$var reg 8 * data_out [7:0] $end
$var reg 5 , write_ptr [4:0] $end
$var reg 5 - read_ptr [4:0] $end
$var reg 9 . packet_len_count [8:0] $end
$var reg 1 / lfd_temp $end

$scope begin unnamed$$_0 $end
$upscope $end


$scope begin unnamed$$_1 $end
$upscope $end

$upscope $end

$upscope $end

$enddefinitions $end

#0
$dumpvars
x!
x)
x(
x&
x/
x%
x"
x$
bxxxxxxxx '
bxxxxxxxx *
bxxxxx -
bxxxxx ,
bxxxxxxxxx .
x+
x#
$end
#5
1!
#10
0!
0"
#15
1!
0/
b00000 ,
1)
b00000 -
b00000000 *
0(
#20
0!
1"
#25
1!
x/
#30
0!
1&
#35
1!
1/
#40
0!
1$
#45
1!
b00001 ,
0)
#50
0!
b00100100 '
#55
1!
b00010 ,
#60
0!
0&
#65
1!
0/
b00011 ,
#70
0!
1%
#75
1!
b00100 ,
b00001 -
bxxxxxxxx *
#80
0!
#85
1!
b00101 ,
b00010 -
b00100100 *
#90
0!
b10000001 '
#95
1!
b00110 ,
b00011 -
#100
0!
#105
1!
b00111 ,
b00100 -
#110
0!
#115
1!
b01000 ,
b00101 -
#120
0!
#125
1!
b01001 ,
b00110 -
b10000001 *
#130
0!
b00001001 '
#135
1!
b01010 ,
b00111 -
#140
0!
#145
1!
b01011 ,
b01000 -
#150
0!
#155
1!
b01100 ,
b01001 -
#160
0!
#165
1!
b01101 ,
b01010 -
b00001001 *
#170
0!
b01100011 '
#175
1!
b01110 ,
b01011 -
#180
0!
#185
1!
b01111 ,
b01100 -
#190
0!
#195
1!
b10000 ,
b01101 -
#200
0!
#205
1!
b10001 ,
b01110 -
b01100011 *
#210
0!
b00001101 '
#215
1!
b10010 ,
b01111 -
#220
0!
#225
1!
b10011 ,
b10000 -
#230
0!
#235
1!
b10100 ,
b10001 -
#240
0!
#245
1!
b10101 ,
b10010 -
b00001101 *
#250
0!
b10001101 '
#255
1!
b10110 ,
b10011 -
#260
0!
#265
1!
b10111 ,
b10100 -
#270
0!
#275
1!
b11000 ,
b10101 -
#280
0!
#285
1!
b11001 ,
b10110 -
b10001101 *
#290
0!
b01100101 '
#295
1!
b11010 ,
b10111 -
#300
0!
#305
1!
b11011 ,
b11000 -
#310
0!
#315
1!
b11100 ,
b11001 -
#320
0!
#325
1!
b11101 ,
b11010 -
b01100101 *
#330
0!
b00010010 '
#335
1!
b11110 ,
b11011 -
#340
0!
#345
1!
b11111 ,
b11100 -
#350
0!
#355
1!
b00000 ,
b11101 -
#360
0!
#365
1!
b00001 ,
b11110 -
b00010010 *
#370
0!
b00000001 '
#375
1!
b00010 ,
b11111 -
#380
0!
#385
1!
b00011 ,
b00000 -
#390
0!
#395
1!
b00100 ,
b00001 -
#400
0!
#405
1!
b00101 ,
b00010 -
b00000001 *
#410
0!
b00001101 '
#415
1!
b00110 ,
b00011 -
#420
0!
#425
1!
b00111 ,
b00100 -
#430
0!
#435
1!
b01000 ,
b00101 -
#440
0!
#445
1!
b01001 ,
b00110 -
b00001101 *
#450
0!
b01110110 '
#455
1!
b01010 ,
b00111 -
#460
0!
#465
1!
b01011 ,
b01000 -
#470
0!
#475
1!
b01100 ,
b01001 -
#480
0!
#485
1!
b01101 ,
b01010 -
b01110110 *
#490
0!
b00111101 '
#495
1!
b01110 ,
b01011 -
#500
0!
#505
1!
b01111 ,
b01100 -
#510
0!
#515
1!
b10000 ,
b01101 -
#520
0!
#525
1!
b10001 ,
b01110 -
b00111101 *
#530
0!
b11101101 '
#535
1!
b10010 ,
b01111 -
#540
0!
#545
1!
b10011 ,
b10000 -
#550
0!
#555
1!
b10100 ,
b10001 -
#560
0!
#565
1!
b10101 ,
b10010 -
b11101101 *
#570
0!
b10001100 '
#575
1!
b10110 ,
b10011 -
#580
0!
#585
1!
b10111 ,
b10100 -
#590
0!
#595
1!
b11000 ,
b10101 -
#600
0!
#605
1!
b11001 ,
b10110 -
b10001100 *
#610
0!
b11111001 '
#615
1!
b11010 ,
b10111 -
#620
0!
#625
1!
b11011 ,
b11000 -
#630
0!
#635
1!
b11100 ,
b11001 -
#640
0!
#645
1!
b11101 ,
b11010 -
b11111001 *
#650
0!
b11000110 '
#655
1!
b11110 ,
b11011 -
#660
0!
#665
1!
b11111 ,
b11100 -
#670
0!
#675
1!
b00000 ,
b11101 -
#680
0!
#685
1!
b00001 ,
b11110 -
b11000110 *
#690
0!
b11000101 '
#695
1!
b00010 ,
b11111 -
#700
0!
#705
1!
b00011 ,
b00000 -
#710
0!
#715
1!
b00100 ,
b00001 -
#720
0!
#725
1!
b00101 ,
b00010 -
b11000101 *
#730
0!
b10101010 '
#735
1!
b00110 ,
b00011 -
#740
0!
#745
1!
b00111 ,
b00100 -
#750
0!
#755
1!
b01000 ,
b00101 -
#760
0!
#765
1!
b01001 ,
b00110 -
b10101010 *
#770
0!
b11100101 '
#775
1!
b01010 ,
b00111 -
#780
0!
#785
1!
b01011 ,
b01000 -
#790
0!
#795
1!
b01100 ,
b01001 -
#800
0!
#805
1!
b01101 ,
b01010 -
b11100101 *
#810
0!
b01110111 '
#815
1!
b01110 ,
b01011 -
#820
0!
#825
1!
b01111 ,
b01100 -
#830
0!
#835
1!
b10000 ,
b01101 -
#840
0!
0$
#845
1!
b01110 -
b01110111 *
#850
0!
0%
